id,name,model_id:id,group_id:id,perm_read,perm_write,perm_create,perm_unlink
access_force_availability,access_force_availability,model_force_availability,,1,0,0,0
access_product_force_availibilty,access_product_force_availibilty,product.model_product_product,yudi_force_availability_stock.laporan_force_availability,0,0,1,0
access_stock_location_force_availibilty,access_stock_location_force_availibilty,stock.model_stock_location,yudi_force_availability_stock.laporan_force_availability,0,0,1,0
access_stock_picking_force_availibilty,access_stock_picking_force_availibilty,stock.model_stock_picking,yudi_force_availability_stock.laporan_force_availability,0,0,1,0
access_sale_order_force_availibilty,access_sale_order_force_availibilty,sale.model_sale_order,yudi_force_availability_stock.laporan_force_availability,0,0,1,0
